iter   tr_logloss   va_logloss
   1      0.29675      0.33275    11.34400
   2      0.29092      0.33277    22.87400
   3      0.28902      0.33293    34.48200
   4      0.28782      0.33343    45.89000
   5      0.28694      0.33353    57.47300
   6      0.28623      0.33389    69.19600
   7      0.28564      0.33434    80.77700
   8      0.28512      0.33458    92.33400
   9      0.28466      0.33502    103.91200
  10      0.28424      0.33477    115.09500
  11      0.28386      0.33513    126.46900
  12      0.28351      0.33609    138.06900
  13      0.28319      0.33631    149.71001
  14      0.28289      0.33629    161.32700
  15      0.28260      0.33644    172.98100
  16      0.28233      0.33668    184.52100
  17      0.28207      0.33659    195.96600
  18      0.28182      0.33698    207.47000
  19      0.28159      0.33802    219.34500
  20      0.28137      0.33815    230.39600
