iter   tr_logloss   va_logloss
   1      0.43747      0.41145    20.51600
   2      0.43331      0.41070    41.52000
   3      0.43193      0.41065    62.59500
   4      0.43103      0.41074    83.64800
   5      0.43036      0.41060    104.93400
   6      0.42982      0.41065    125.42200
   7      0.42936      0.41095    146.38300
   8      0.42897      0.41098    167.31000
   9      0.42862      0.41084    188.57899
  10      0.42831      0.41102    209.61200
  11      0.42803      0.41119    230.56500
  12      0.42777      0.41116    250.85800
  13      0.42754      0.41140    272.28400
  14      0.42732      0.41155    293.60699
  15      0.42711      0.41152    314.56500
  16      0.42692      0.41165    335.51599
  17      0.42674      0.41167    356.53900
  18      0.42657      0.41182    375.38599
  19      0.42641      0.41200    394.06100
  20      0.42626      0.41213    412.53299
