iter   tr_logloss   va_logloss
   1      0.29404      0.32519    10.05600
   2      0.28842      0.32431    20.13600
   3      0.28660      0.32385    30.22400
   4      0.28542      0.32374    40.32200
   5      0.28456      0.32360    50.43600
   6      0.28386      0.32376    60.56000
   7      0.28328      0.32395    70.65200
   8      0.28278      0.32395    80.72600
   9      0.28235      0.32424    90.83000
  10      0.28195      0.32433    100.91800
  11      0.28161      0.32441    110.99300
  12      0.28128      0.32467    121.08200
  13      0.28098      0.32483    131.16600
  14      0.28071      0.32488    141.25600
  15      0.28045      0.32505    151.34000
  16      0.28021      0.32518    161.42200
  17      0.27998      0.32530    171.45799
  18      0.27977      0.32554    181.55000
  19      0.27956      0.32560    191.61700
  20      0.27937      0.32578    201.71600
