iter   tr_logloss   va_logloss
   1      0.29538      0.32904    11.87000
   2      0.28981      0.32783    23.26200
   3      0.28799      0.32767    35.30300
   4      0.28680      0.32827    47.21700
   5      0.28592      0.32807    59.25000
   6      0.28519      0.32874    71.45400
   7      0.28458      0.32874    83.69100
   8      0.28405      0.32872    95.50200
   9      0.28357      0.32983    107.26600
  10      0.28314      0.32973    119.21500
  11      0.28275      0.32984    130.91901
  12      0.28238      0.33099    141.30901
  13      0.28204      0.33124    151.63000
  14      0.28173      0.33099    161.94701
  15      0.28143      0.33153    172.34300
  16      0.28115      0.33213    182.69299
  17      0.28089      0.33170    193.05600
  18      0.28063      0.33227    203.32800
  19      0.28039      0.33292    213.62700
  20      0.28016      0.33333    223.90199
